LANK75100000000602603000000000000000000
LANK75100000000604605000000000000000000
LANK75100000000606607000000000000000000
LANK75100000000608609000000000000000000
LANK75100000000610611000000000000000000
LANK75100000000612613000000000000000000
LANK75100000000614615000000000000000000
LANK75100000000616617000000000000000000
LANK75100000000618619000000000000000000
LANK75100000000620621000000000000000000
LANK75100000000622623000000000000000000
LANK75100000000624625000000000000000000
LANK75100000000626627000000000000000000
LANK75100000000628629000000000000000000
LANK75100000000630631000000000000000000
LANK75100000000632633000000000000000000
