STNK006001000000001  1  E  30 01.12.96  15:06   113 22 2 13H00  222 11 1 23V01  1234567
STNK006001000000002  1  E  30 01.12.96  15:06   113 22 2 13H00  222 11 1 23V01  1234567
STNK006001000000003  1  E  30 01.12.96  15:06   113 22 2 13H00  222 11 1 23V01  1234567
STNK006001000000004  1  E  30 01.12.96  15:06   113 22 2 13H00  222 11 1 23V01  1234567
STNK006001000000005  1  E  30 01.12.96  15:06   113 22 2 13H00  222 11 1 23V01  1234567
STNK006001000000006  1  E  30 01.12.96  15:06   113 22 2 13H00  222 11 1 23V01  1234567
STNK006001000000007  1  E  30 01.12.96  15:06   113 22 2 13H00  222 11 1 23V01  1234567
STNK006001000000008  1  E  30 01.12.96  15:06   113 22 2 13H00  222 11 1 23V01  1234567
STNK006001000000009  1  E  30 01.12.96  15:06   113 22 2 13H00  222 11 1 23V01  1234567
STNK006001000000010  1  E  30 01.12.96  15:06   113 22 3 13H00  222 11 1 23V01  1234567
STNK006001000000011  1  E  30 01.12.96  15:06   113 22 4 13H00  222 11 1 23V01  1234567
STNK006001000000012  1  E  30 01.12.96  15:06   113 22 5 13H00  222 11 1 23V01  1234567
STNK006001000000013  1  E  30 01.12.96  15:06   113 22 6 13H00  222 11 1 23V01  1234567
STNK006001000000014  1  E  30 01.12.96  15:06   113 22 7 13H00  222 11 1 23V01  1234567
STNK006001000000015  1  E  30 01.12.96  15:06   113 22 8 13H00  222 11 1 23V01  1234567
STNK006001000000016  1  E  30 01.12.96  15:06   113 22 9 13H00  222 11 1 23V01  1234567
STNK006001000000017  1  E  30 01.12.96  15:06   113 22 1 13H00  222 11 1 23V01  1234567
STNK006001000000018  1  E  30 01.12.96  15:06   113 22 2 13H00  222 11 1 23V01  1234567
